{
    "KPlugin": {
        "Authors": [
            {
                "Email": "",
                "Name": ""
            }
        ],
        "Category": "",
        "Description": "Information about files and directories.",
        "Description[ar]": "معلومات حول الملفات والأدلة.",
        "Description[az]": "Fayllar və qovluqlar haqqında məlumatlar.",
        "Description[be]": "Звесткі пра файлы і каталогі.",
        "Description[bg]": "Информация за файлове и папки.",
        "Description[ca@valencia]": "Informació quant a fitxers i directoris.",
        "Description[ca]": "Informació quant a fitxers i directoris.",
        "Description[cs]": "Informace o souborech a adresářích.",
        "Description[da]": "Information om filer og mapper.",
        "Description[de]": "Informationen über Dateien und Ordner.",
        "Description[en_GB]": "Information about files and directories.",
        "Description[eo]": "Informoj pri dosieroj kaj dosierujoj",
        "Description[es]": "Información sobre los archivos y directorios.",
        "Description[et]": "Teave failide ja kataloogide kohta.",
        "Description[eu]": "Fitxategi eta direktorioei buruzko informazioa",
        "Description[fi]": "Tietoa tiedostoista ja kansioista.",
        "Description[fr]": "Informations sur les fichiers et les dossiers.",
        "Description[gl]": "Información sobre ficheiros e directorios.",
        "Description[he]": "מידע על קבצים ותיקיות.",
        "Description[hi]": "फ़ाइलों व डिरेक्ट्रियों के बारे में जानकारी",
        "Description[hu]": "Fájl- és mappajellemzők.",
        "Description[ia]": "Information re files e directorios.",
        "Description[id]": "Informasi tentang file dan direktori.",
        "Description[is]": "Upplýsingar um skrár og möppur.",
        "Description[it]": "Informazioni su file e cartelle.",
        "Description[ja]": "ファイルとディレクトリに関する情報",
        "Description[ka]": "ინფორმაცია ფაილებისა და საქაღალდეების შესახებ.",
        "Description[ko]": "파일과 디렉터리 정보입니다.",
        "Description[lt]": "Informacija apie failus ir katalogus.",
        "Description[lv]": "Informācija par datnēm un mapēm.",
        "Description[nl]": "Informatie over bestanden en mappen.",
        "Description[nn]": "Informasjon om filer og mapper.",
        "Description[pa]": "ਫਾਇਲਾਂ ਅਤੇ ਡਾਇਰੈਕਟਰੀਆਂ ਦੇ ਬਾਰੇ ਜਾਣਕਾਰੀ ਹੈ।",
        "Description[pl]": "Wyświetla informacje o plikach i katalogach.",
        "Description[pt]": "Informação sobre os ficheiros e pastas.",
        "Description[pt_BR]": "Informações sobre pastas e arquivos.",
        "Description[ro]": "Informații despre fișiere și dosare.",
        "Description[ru]": "Сведения о файлах и папках для виджетов.",
        "Description[sa]": "सञ्चिकानां, पुटस्य च विषये सूचना।.",
        "Description[sk]": "Informácie o súboroch a adresároch.",
        "Description[sl]": "Informacije o datotekah in mapah.",
        "Description[sv]": "Information om filer och kataloger.",
        "Description[ta]": "கோப்புகள் மற்றும் அடைவுகளைப் பற்றிய விவரங்கள்",
        "Description[tr]": "Dosyalar ve dizinler hakkında bilgiler.",
        "Description[uk]": "Інформація про файли і каталоги.",
        "Description[vi]": "Thông tin về các tệp và thư mục.",
        "Description[x-test]": "xxInformation about files and directories.xx",
        "Description[zh_CN]": "关于文件和目录的信息。",
        "Description[zh_TW]": "關於檔案與目錄的資訊。",
        "Icon": "system-file-manager",
        "License": "",
        "Name": "Files and Directories",
        "Name[ar]": "ملفات وأدلة",
        "Name[ast]": "Ficheros ya direutorios",
        "Name[az]": "Fayllar və Qovluqlar",
        "Name[be@latin]": "Fajły j katalohi",
        "Name[be]": "Файлы і каталогі",
        "Name[bg]": "Файлове и папки",
        "Name[bn]": "ফাইল এবং ডিরেক্টরি",
        "Name[bn_IN]": "ফাইল ও ডিরেক্টরি",
        "Name[bs]": "Datoteke i fascikle",
        "Name[ca@valencia]": "Fitxers i directoris",
        "Name[ca]": "Fitxers i directoris",
        "Name[cs]": "Soubory a složky",
        "Name[csb]": "Lopczi ë katalodżi",
        "Name[da]": "Filer og mapper",
        "Name[de]": "Dateien und Ordner",
        "Name[el]": "Αρχεία και κατάλογοι",
        "Name[en_GB]": "Files and Directories",
        "Name[eo]": "Dosieroj kaj Dosierujoj",
        "Name[es]": "Archivos y directorios",
        "Name[et]": "Failid ja kataloogid",
        "Name[eu]": "Fitxategiak eta direktorioak",
        "Name[fi]": "Tiedostot ja kansiot",
        "Name[fr]": "Fichiers et dossiers",
        "Name[fy]": "triemmen en triemtafels",
        "Name[ga]": "Comhaid agus Comhadlanna",
        "Name[gl]": "Ficheiros e directorios",
        "Name[gu]": "ફાઇલો અને ડિરેક્ટરીઓ",
        "Name[he]": "קבצים ותיקיות",
        "Name[hi]": "फ़ाइलें तथा डिरेक्ट्रियाँ",
        "Name[hne]": "फाइल अउ डिरेक्टरी",
        "Name[hr]": "Datoteke i direktoriji",
        "Name[hsb]": "Dataje a zapiski",
        "Name[hu]": "Fájlok és mappák",
        "Name[ia]": "Files e directorios",
        "Name[id]": "File dan Direktori",
        "Name[is]": "Skrár og möppur",
        "Name[it]": "File e cartelle",
        "Name[ja]": "ファイルとディレクトリ",
        "Name[ka]": "ფაილები და საქაღალდეები",
        "Name[kk]": "Файлдар мен Қапшықтар",
        "Name[km]": "ឯកសារ​ និង​ថត",
        "Name[kn]": "ಕಡತ ಹಾಗೂ ಕಡಕಕೋಶಗಳು",
        "Name[ko]": "파일과 디렉터리",
        "Name[lt]": "Failai ir katalogai",
        "Name[lv]": "Datnes un mapes",
        "Name[mai]": "फाइल आओर निर्देशिका",
        "Name[mk]": "Датотеки и папки",
        "Name[ml]": "ഫയല്‍, തട്ട് എന്നിവ",
        "Name[mr]": "फाईल व संचयीका",
        "Name[nb]": "Filer og mapper",
        "Name[nds]": "Dateien un Ornern",
        "Name[nl]": "Bestanden en mappen",
        "Name[nn]": "Filer og mapper",
        "Name[or]": "ଫାଇଲ ଏବଂ ଡ଼ିରେକ୍ଟୋରୀଗୁଡ଼ିକ",
        "Name[pa]": "ਫਾਇਲਾਂ ਅਤੇ ਡਾਇਰੈਕਟਰੀਆਂ",
        "Name[pl]": "Pliki i katalogi",
        "Name[pt]": "Ficheiros e Pastas",
        "Name[pt_BR]": "Arquivos e pastas",
        "Name[ro]": "Fișiere și dosare",
        "Name[ru]": "Файлы и папки",
        "Name[sa]": "सञ्चिकाः पुटं च",
        "Name[si]": "ගොනු සහ බහලුම්",
        "Name[sk]": "Súbory a adresáre",
        "Name[sl]": "Datoteke in mape",
        "Name[sr@ijekavian]": "фајлови и фасцикле",
        "Name[sr@ijekavianlatin]": "fajlovi i fascikle",
        "Name[sr@latin]": "fajlovi i fascikle",
        "Name[sr]": "фајлови и фасцикле",
        "Name[sv]": "Filer och kataloger",
        "Name[ta]": "கோப்புகளும் அடைவுகளும்",
        "Name[tg]": "Файлҳо ва ҷузвадонҳо",
        "Name[th]": "ดูแฟ้มและไดเรกทอรี",
        "Name[tr]": "Dosyalar ve Dizinler",
        "Name[ug]": "ھۆججەت ۋە مۇندەرىجەلەر",
        "Name[uk]": "Файли і каталоги",
        "Name[vi]": "Tệp và thư mục",
        "Name[wa]": "Fitchîs eyet ridants",
        "Name[x-test]": "xxFiles and Directoriesxx",
        "Name[zh_CN]": "文件和目录",
        "Name[zh_TW]": "檔案與目錄",
        "Website": "https://kde.org/plasma-desktop"
    }
}
